[
  {
    "id": "7d529dd4-548b-4258-aa8e-23e34dc8d43d",
    "date": "2013-09-18 11:16:32",
    "results": [
      {
        "plan": "aaaaa",
        "service": "video",
        "kpis": [
          {
            "kpi_name": "vfr",
            "groups": [
              {
                "name": "gold",
                "share": 12.0,
                "delta_value": 0.5,
                "weight": "5",
                "value_type": "per_one"
              },
              {
                "name": "gold",
                "share": 18.0,
                "delta_value": 0.0549474677984,
                "weight": "5",
                "value_type": "per_one"
              },
              {
                "name": "silver_domestic",
                "share": 10.0,
                "delta_value": -0.626238550052,
                "weight": "2",
                "value_type": "per_one"
              },
              {
                "name": "bronze_domestic",
                "share": 10.0,
                "delta_value": -1.0,
                "weight": "1",
                "value_type": "per_one"
              },
              {
                "name": "silver_corporate",
                "share": 40.0,
                "delta_value": 0.0549474677984,
                "weight": "4",
                "value_type": "per_one"
              },
              {
                "name": "bronze_corporate",
                "share": 10.0,
                "delta_value": 0.0549474677984,
                "weight": "1",
                "value_type": "per_one"
              }
            ],
            "value_type": "per_cent",
            "delta_value": -6.52595769024,
            "weighted_delta_value": 4.3523141253
          }
        ]
      },
      {
        "plan": "cbbbcc",
        "service": "video",
        "kpis": [
          {
            "kpi_name": "vfr",
            "groups": [
              {
                "name": "gold",
                "share": 12.0,
                "delta_value": 0.5,
                "weight": "5",
                "value_type": "per_one"
              },
              {
                "name": "gold",
                "share": 18.0,
                "delta_value": 0.51207501735,
                "weight": "5",
                "value_type": "per_one"
              },
              {
                "name": "silver_domestic",
                "share": 10.0,
                "delta_value": -0.626238550052,
                "weight": "2",
                "value_type": "per_one"
              },
              {
                "name": "bronze_domestic",
                "share": 10.0,
                "delta_value": -1.0,
                "weight": "1",
                "value_type": "per_one"
              },
              {
                "name": "silver_corporate",
                "share": 40.0,
                "delta_value": -1.0,
                "weight": "4",
                "value_type": "per_one"
              },
              {
                "name": "bronze_corporate",
                "share": 10.0,
                "delta_value": -1.0,
                "weight": "1",
                "value_type": "per_one"
              }
            ],
            "value_type": "per_cent",
            "delta_value": -51.0450351882,
            "weighted_delta_value": -23.2876038879
          }
        ]
      },
      {
        "plan": "bbb",
        "service": "video",
        "kpis": [
          {
            "kpi_name": "vfr",
            "groups": [
              {
                "name": "gold",
                "share": 12.0,
                "delta_value": 0.5,
                "weight": "5",
                "value_type": "per_one"
              },
              {
                "name": "gold",
                "share": 18.0,
                "delta_value": 0.0645909293969,
                "weight": "5",
                "value_type": "per_one"
              },
              {
                "name": "silver_corporate",
                "share": 40.0,
                "delta_value": 0.0645909293969,
                "weight": "4",
                "value_type": "per_one"
              },
              {
                "name": "bronze_corporate",
                "share": 10.0,
                "delta_value": -1.0,
                "weight": "1",
                "value_type": "per_one"
              },
              {
                "name": "silver_domestic",
                "share": 10.0,
                "delta_value": -1.0,
                "weight": "2",
                "value_type": "per_one"
              }
            ],
            "value_type": "per_cent",
            "delta_value": -10.253726095,
            "weighted_delta_value": 3.22954646985
          }
        ]
      }
    ]
  }
]
