{
    "groups": [
        {
            "name": "gold",
            "share": 56
        },
        {
            "name": "silver_domestic",
            "share": 44
        }
    ],
    "kpis": [
        {
            "service": "video",
            "kpi_names": [
                {
                    "name": "video_freeze_rate"
                }
            ]
        }
    ],
    "plans": [
        {
            "plan_ref": "Plan_1",
            "policies": [
                {
                    "group": "gold",
                    "policy": "wifi"
                },
                {
                    "group": "silver_domestic",
                    "policy": "traffic_gating",
                    "parameters": {
                        "services": [
                            "video",
                            "web_browsing"
                        ]
                    }
                }
            ]
        },
        {
            "plan_ref": "Plan_2",
            "policies": [
                {
                    "group": "gold",
                    "policy": "bandwidth_throttling",
                    "parameters": {
                        "limit": "64"
                    }
                },
                {
                    "group": "silver_domestic",
                    "policy": "bandwidth_throttling",
                    "parameters": {
                        "limit": "1000"
                    }
                }
            ]
        }
    ]
}