[
  {
    "id": 0,
    "name": "Madrid"
  },
  {
    "id": 1,
    "name": "Barcelona"
  },
  {
    "id": 2,
    "name": "Oviedo"
  },
  {
    "id": 3,
    "name": "León"
  },
  {
    "id": 4,
    "name": "Málaga"
  },
  {
    "id": 5,
    "name": "Salamanca"
  },
  {
    "id": 6,
    "name": "Sevilla"
  }
]