[
  {
    "id": 0,
    "prediction_event_id": 0,
    "service": "Video",
    "certainty": 97.0,
    "timestamp": 0,
    "start_time": "10:00",
    "end_time": "15:20",
    "area": "Madrid",
    "lat": "40.468393",
    "lon": "-3.680223",
    "cell_id": 132909340,
    "priority": 2,
    "segmentation": [
      {
        "group_id": 1,
        "proportion": 40
      },
      {
        "group_id": 3,
        "proportion": 60.0
      }
    ],
    "kpis": [
      {
        "name": "Video accessibility",
        "value": 89.0
      },
      {
        "name": "Video Freeze Rate",
        "value": 70.0
      }
    ],
    "subscribers": [
    ]
  },
  {
    "id": 1,
    "prediction_event_id": 0,
    "service": "Web Browsing",
    "certainty": 50.0,
    "timestamp": 0,
    "start_time": "08:56",
    "end_time": "17:30",
    "area": "Barcelona",
    "lat": "41.388995",
    "lon": "2.172114",
    "cell_id": 132909543,
    "priority": 1,
    "segmentation": [
      {
        "group_id": 0,
        "proportion": 20.0
      },
      {
        "group_id": 2,
        "proportion": 20.0
      },
      {
        "group_id": 4,
        "proportion": 60.0
      }
    ],
    "kpis": [
      {
        "name": "Web Accessibility",
        "value": 90.0
      },
      {
        "name": "Web Speed",
        "value": 900.0
      }
    ],
    "subscribers": [
    ]
  },
  {
    "id": 2,
    "prediction_event_id": 0,
    "service": "File Transfer",
    "certainty": 82.0,
    "timestamp": 0,
    "start_time": "21:45",
    "end_time": "01:30",
    "area": "Oviedo",
    "lat": "43.365806",
    "lon": "-5.849344",
    "cell_id": 132909976,
    "priority": 1,
    "segmentation": [
      {
        "group_id": 0,
        "proportion": 20.0
      },
      {
        "group_id": 2,
        "proportion": 57.0
      },
      {
        "group_id": 4,
        "proportion": 23.0
      }
    ],
    "kpis": [
      {
        "name": "Web Accessibility",
        "value": 90.0
      },
      {
        "name": "Web Speed",
        "value": 900.0
      }
    ],
    "subscribers": [
    ]
  },
  {
    "id": 3,
    "prediction_event_id": 0,
    "service": "Video",
    "certainty": 57.0,
    "timestamp": 0,
    "start_time": "16:50",
    "end_time": "20:30",
    "area": "León",
    "lat": "42.597047",
    "lon": " -5.574207",
    "cell_id": 132909596,
    "priority": 3,
    "segmentation": [
      {
        "group_id": 1,
        "proportion": 62
      },
      {
        "group_id": 3,
        "proportion": 38.0
      }
    ],
    "kpis": [
      {
        "name": "Video accessibility",
        "value": 80.0
      },
      {
        "name": "Video Freeze Rate",
        "value": 40.0
      }
    ],
    "subscribers": [
    ]
  },
  {
    "id": 4,
    "prediction_event_id": 0,
    "service": "Video",
    "certainty": 60.0,
    "timestamp": 0,
    "start_time": "18:00",
    "end_time": "23:30",
    "area": "Málaga",
    "lat": "36.721364",
    "lon": "-4.412173",
    "cell_id": 132901849,
    "priority": 3,
    "segmentation": [
      {
        "group_id": 0,
        "proportion": 5.0
      },
      {
        "group_id": 2,
        "proportion": 33.0
      },
      {
        "group_id": 4,
        "proportion": 62.0
      }
    ],
    "kpis": [
      {
        "name": "Video accessibility",
        "value": 80.0
      },
      {
        "name": "Video Freeze Rate",
        "value": 45.0
      }
    ],
    "subscribers": [
    ]
  },
  {
    "id": 5,
    "prediction_event_id": 0,
    "service": "Video",
    "certainty": 82.0,
    "timestamp": 0,
    "start_time": "18:00",
    "end_time": "21:00",
    "area": "Salamanca",
    "lat": "40.967392",
    "lon": "-5.671787",
    "cell_id": 132906098,
    "priority": 2,
    "segmentation": [
      {
        "group_id": 0,
        "proportion": 10.0
      },
      {
        "group_id": 2,
        "proportion": 40.0
      },
      {
        "group_id": 4,
        "proportion": 50.0
      }
    ],
    "kpis": [
      {
        "name": "Video accessibility",
        "value": 80.0
      },
      {
        "name": "Video Freeze Rate",
        "value": 70.0
      }
    ],
    "subscribers": [
    ]
  },
  {
    "id": 6,
    "prediction_event_id": 0,
    "service": "Web Browsing",
    "certainty": 76.0,
    "timestamp": 0,
    "start_time": "13:30",
    "end_time": "23:00",
    "area": "Sevilla",
    "lat": "37.397876",
    "lon": "-5.987331",
    "cell_id": 132904442,
    "priority": 2,
    "segmentation": [
      {
        "group_id": 0,
        "proportion": 40.0
      },
      {
        "group_id": 2,
        "proportion": 20.0
      },
      {
        "group_id": 4,
        "proportion": 40.0
      }
    ],
    "kpis": [
      {
        "name": "Web Accessibility",
        "value": 90.0
      },
      {
        "name": "Web Speed",
        "value": 900.0
      }
    ],
    "subscribers": [
    ]
  }
]